[
	{
		"nama" : "nikko",
		"usia" : 22,
		"semester" : 6,
		"lulus" : false,
		"foto" : "default.jpg",
		"hobi" : [
			"coding",
			"mancing"
		]
	},
	{
		"nama" : "aya",
		"usia" : 7,
		"semester" : 1,
		"lulus" : true,
		"foto" : "default.jpg",
		"hobi" : [
			"masak",
			"main"
		]
	}
]